{
    "name": "_PlayerInputs",
    "maps": [
        {
            "name": "Player",
            "id": "f5ac172c-e826-4303-a3df-2f0ee1a24177",
            "actions": [
                {
                    "name": "Move",
                    "type": "Value",
                    "id": "a4d9c137-c859-4466-b6ea-0070cf48c5bc",
                    "expectedControlType": "Vector2",
                    "processors": "",
                    "interactions": ""
                },
                {
                    "name": "Look",
                    "type": "Value",
                    "id": "d940e00a-00da-4260-bb48-f9c25560ee3b",
                    "expectedControlType": "Vector2",
                    "processors": "",
                    "interactions": ""
                },
                {
                    "name": "Jump",
                    "type": "Button",
                    "id": "e13892d4-a025-44c1-a296-57aa16b5dda0",
                    "expectedControlType": "Button",
                    "processors": "",
                    "interactions": "Press(behavior=2)"
                },
                {
                    "name": "Dash",
                    "type": "Button",
                    "id": "a0cc11c6-f8fd-43a9-9ecb-1053321a4ae2",
                    "expectedControlType": "Button",
                    "processors": "",
                    "interactions": "Press(behavior=2)"
                },
                {
                    "name": "Weapon1",
                    "type": "Button",
                    "id": "b3bd87e0-691b-4f2e-8598-2d5dfd58b8ba",
                    "expectedControlType": "Button",
                    "processors": "",
                    "interactions": "Press"
                },
                {
                    "name": "Weapon2",
                    "type": "Button",
                    "id": "827e0283-1af0-4f7f-9abb-f41ad4a3bfd6",
                    "expectedControlType": "Button",
                    "processors": "",
                    "interactions": "Press"
                },
                {
                    "name": "Reload",
                    "type": "Button",
                    "id": "fb81f5d4-b82f-45cf-ae8f-630f82fb070d",
                    "expectedControlType": "Button",
                    "processors": "",
                    "interactions": "Press"
                }
            ],
            "bindings": [
                {
                    "name": "",
                    "id": "978bfe49-cc26-4a3d-ab7b-7d7a29327403",
                    "path": "<Gamepad>/leftStick",
                    "interactions": "",
                    "processors": "",
                    "groups": ";Gamepad",
                    "action": "Move",
                    "isComposite": false,
                    "isPartOfComposite": false
                },
                {
                    "name": "WASD",
                    "id": "00ca640b-d935-4593-8157-c05846ea39b3",
                    "path": "Dpad",
                    "interactions": "",
                    "processors": "",
                    "groups": "",
                    "action": "Move",
                    "isComposite": true,
                    "isPartOfComposite": false
                },
                {
                    "name": "up",
                    "id": "e2062cb9-1b15-46a2-838c-2f8d72a0bdd9",
                    "path": "<Keyboard>/w",
                    "interactions": "",
                    "processors": "",
                    "groups": ";Keyboard&Mouse",
                    "action": "Move",
                    "isComposite": false,
                    "isPartOfComposite": true
                },
                {
                    "name": "up",
                    "id": "8180e8bd-4097-4f4e-ab88-4523101a6ce9",
                    "path": "<Keyboard>/upArrow",
                    "interactions": "",
                    "processors": "",
                    "groups": ";Keyboard&Mouse",
                    "action": "Move",
                    "isComposite": false,
                    "isPartOfComposite": true
                },
                {
                    "name": "down",
                    "id": "320bffee-a40b-4347-ac70-c210eb8bc73a",
                    "path": "<Keyboard>/s",
                    "interactions": "",
                    "processors": "",
                    "groups": ";Keyboard&Mouse",
                    "action": "Move",
                    "isComposite": false,
                    "isPartOfComposite": true
                },
                {
                    "name": "down",
                    "id": "1c5327b5-f71c-4f60-99c7-4e737386f1d1",
                    "path": "<Keyboard>/downArrow",
                    "interactions": "",
                    "processors": "",
                    "groups": ";Keyboard&Mouse",
                    "action": "Move",
                    "isComposite": false,
                    "isPartOfComposite": true
                },
                {
                    "name": "left",
                    "id": "d2581a9b-1d11-4566-b27d-b92aff5fabbc",
                    "path": "<Keyboard>/a",
                    "interactions": "",
                    "processors": "",
                    "groups": ";Keyboard&Mouse",
                    "action": "Move",
                    "isComposite": false,
                    "isPartOfComposite": true
                },
                {
                    "name": "left",
                    "id": "2e46982e-44cc-431b-9f0b-c11910bf467a",
                    "path": "<Keyboard>/leftArrow",
                    "interactions": "",
                    "processors": "",
                    "groups": ";Keyboard&Mouse",
                    "action": "Move",
                    "isComposite": false,
                    "isPartOfComposite": true
                },
                {
                    "name": "right",
                    "id": "fcfe95b8-67b9-4526-84b5-5d0bc98d6400",
                    "path": "<Keyboard>/d",
                    "interactions": "",
                    "processors": "",
                    "groups": ";Keyboard&Mouse",
                    "action": "Move",
                    "isComposite": false,
                    "isPartOfComposite": true
                },
                {
                    "name": "right",
                    "id": "77bff152-3580-4b21-b6de-dcd0c7e41164",
                    "path": "<Keyboard>/rightArrow",
                    "interactions": "",
                    "processors": "",
                    "groups": ";Keyboard&Mouse",
                    "action": "Move",
                    "isComposite": false,
                    "isPartOfComposite": true
                },
                {
                    "name": "",
                    "id": "1635d3fe-58b6-4ba9-a4e2-f4b964f6b5c8",
                    "path": "<XRController>/{Primary2DAxis}",
                    "interactions": "",
                    "processors": "",
                    "groups": "XR",
                    "action": "Move",
                    "isComposite": false,
                    "isPartOfComposite": false
                },
                {
                    "name": "",
                    "id": "3ea4d645-4504-4529-b061-ab81934c3752",
                    "path": "<Joystick>/stick",
                    "interactions": "",
                    "processors": "",
                    "groups": "Joystick",
                    "action": "Move",
                    "isComposite": false,
                    "isPartOfComposite": false
                },
                {
                    "name": "",
                    "id": "c1f7a91b-d0fd-4a62-997e-7fb9b69bf235",
                    "path": "<Gamepad>/rightStick",
                    "interactions": "",
                    "processors": "",
                    "groups": ";Gamepad",
                    "action": "Look",
                    "isComposite": false,
                    "isPartOfComposite": false
                },
                {
                    "name": "",
                    "id": "8c8e490b-c610-4785-884f-f04217b23ca4",
                    "path": "<Pointer>/delta",
                    "interactions": "",
                    "processors": "",
                    "groups": ";Keyboard&Mouse;Touch",
                    "action": "Look",
                    "isComposite": false,
                    "isPartOfComposite": false
                },
                {
                    "name": "",
                    "id": "3e5f5442-8668-4b27-a940-df99bad7e831",
                    "path": "<Joystick>/{Hatswitch}",
                    "interactions": "",
                    "processors": "",
                    "groups": "Joystick",
                    "action": "Look",
                    "isComposite": false,
                    "isPartOfComposite": false
                },
                {
                    "name": "",
                    "id": "de97ed87-8ff0-4e78-a460-0f35a70aace2",
                    "path": "<Keyboard>/space",
                    "interactions": "",
                    "processors": "",
                    "groups": "Keyboard&Mouse",
                    "action": "Jump",
                    "isComposite": false,
                    "isPartOfComposite": false
                },
                {
                    "name": "",
                    "id": "d3c89d54-3c62-415c-9a04-e7dc27be4b3c",
                    "path": "<Gamepad>/rightStick/down",
                    "interactions": "",
                    "processors": "",
                    "groups": "Gamepad",
                    "action": "Jump",
                    "isComposite": false,
                    "isPartOfComposite": false
                },
                {
                    "name": "",
                    "id": "6291a906-cb92-46d3-8718-def4c99b1cff",
                    "path": "<Keyboard>/leftShift",
                    "interactions": "",
                    "processors": "",
                    "groups": "Keyboard&Mouse",
                    "action": "Dash",
                    "isComposite": false,
                    "isPartOfComposite": false
                },
                {
                    "name": "",
                    "id": "8ad9aafb-7665-4c2f-a0b9-ba74c37e51cd",
                    "path": "<Gamepad>/leftTrigger",
                    "interactions": "",
                    "processors": "",
                    "groups": "Gamepad",
                    "action": "Dash",
                    "isComposite": false,
                    "isPartOfComposite": false
                },
                {
                    "name": "",
                    "id": "b844dd4a-b94b-44a7-8c72-4a46dbe72ba3",
                    "path": "<Keyboard>/1",
                    "interactions": "",
                    "processors": "",
                    "groups": "Keyboard&Mouse",
                    "action": "Weapon1",
                    "isComposite": false,
                    "isPartOfComposite": false
                },
                {
                    "name": "",
                    "id": "493466cd-65bc-40c1-adc4-2ec021fc5e30",
                    "path": "<Keyboard>/2",
                    "interactions": "",
                    "processors": "",
                    "groups": "Keyboard&Mouse",
                    "action": "Weapon2",
                    "isComposite": false,
                    "isPartOfComposite": false
                },
                {
                    "name": "",
                    "id": "aee3d3ac-e4af-4799-9905-ac70694a32e9",
                    "path": "<Keyboard>/r",
                    "interactions": "",
                    "processors": "",
                    "groups": "Keyboard&Mouse",
                    "action": "Reload",
                    "isComposite": false,
                    "isPartOfComposite": false
                }
            ]
        },
        {
            "name": "Attacks",
            "id": "8dbc0a5b-351d-4f97-bf3a-62ab7acc647e",
            "actions": [
                {
                    "name": "PrimaryShoot",
                    "type": "Button",
                    "id": "497aefda-c405-42e6-ad00-631576db8366",
                    "expectedControlType": "Button",
                    "processors": "",
                    "interactions": ""
                },
                {
                    "name": "SecondaryShoot",
                    "type": "Button",
                    "id": "7cec9e94-4915-442e-b113-21104d8b98e6",
                    "expectedControlType": "Button",
                    "processors": "",
                    "interactions": "Press"
                }
            ],
            "bindings": [
                {
                    "name": "",
                    "id": "a75d1609-c4b5-464b-9940-f17260fd6049",
                    "path": "<Mouse>/leftButton",
                    "interactions": "",
                    "processors": "",
                    "groups": "Keyboard&Mouse",
                    "action": "PrimaryShoot",
                    "isComposite": false,
                    "isPartOfComposite": false
                },
                {
                    "name": "",
                    "id": "c8eb54f3-d0c6-4564-b8b4-e1d1e60fb3f1",
                    "path": "<Gamepad>/rightShoulder",
                    "interactions": "",
                    "processors": "",
                    "groups": "Gamepad",
                    "action": "PrimaryShoot",
                    "isComposite": false,
                    "isPartOfComposite": false
                },
                {
                    "name": "",
                    "id": "df937168-3f20-44b2-b41e-ebc754722b38",
                    "path": "<Gamepad>/leftShoulder",
                    "interactions": "",
                    "processors": "",
                    "groups": "Gamepad",
                    "action": "SecondaryShoot",
                    "isComposite": false,
                    "isPartOfComposite": false
                },
                {
                    "name": "",
                    "id": "e56d1892-0427-48af-8c5a-234047f1777f",
                    "path": "<Mouse>/rightButton",
                    "interactions": "",
                    "processors": "",
                    "groups": "Keyboard&Mouse",
                    "action": "SecondaryShoot",
                    "isComposite": false,
                    "isPartOfComposite": false
                }
            ]
        },
        {
            "name": "UI",
            "id": "430813bd-438b-4c9c-b980-a0ec7ba55e90",
            "actions": [
                {
                    "name": "Navigate",
                    "type": "Value",
                    "id": "846e76a6-d197-4c5e-99db-c39c46ebe076",
                    "expectedControlType": "Vector2",
                    "processors": "",
                    "interactions": ""
                },
                {
                    "name": "Submit",
                    "type": "Button",
                    "id": "2fb3c3b6-1130-4834-af52-35cc1eb274d7",
                    "expectedControlType": "Button",
                    "processors": "",
                    "interactions": ""
                },
                {
                    "name": "Cancel",
                    "type": "Button",
                    "id": "c18b1cda-1b34-4eb6-9538-6f1217b2cb9b",
                    "expectedControlType": "Button",
                    "processors": "",
                    "interactions": ""
                },
                {
                    "name": "Point",
                    "type": "PassThrough",
                    "id": "1c4b7417-fe14-458e-9402-8061ca11a0c3",
                    "expectedControlType": "Vector2",
                    "processors": "",
                    "interactions": ""
                },
                {
                    "name": "Click",
                    "type": "PassThrough",
                    "id": "4b412281-8dc0-4db1-bc59-7b21df937c48",
                    "expectedControlType": "Button",
                    "processors": "",
                    "interactions": ""
                },
                {
                    "name": "ScrollWheel",
                    "type": "PassThrough",
                    "id": "66a17e74-2705-4198-b08b-cf13a8e20c72",
                    "expectedControlType": "Vector2",
                    "processors": "",
                    "interactions": ""
                },
                {
                    "name": "MiddleClick",
                    "type": "PassThrough",
                    "id": "d2e57b1a-af80-4d89-9b3f-03b43f8d6915",
                    "expectedControlType": "",
                    "processors": "",
                    "interactions": ""
                },
                {
                    "name": "RightClick",
                    "type": "PassThrough",
                    "id": "646ba33a-1598-4a86-bb30-fa7e4a73fca0",
                    "expectedControlType": "",
                    "processors": "",
                    "interactions": ""
                },
                {
                    "name": "TrackedDevicePosition",
                    "type": "PassThrough",
                    "id": "41cf7001-74e7-4a88-9161-23403412535d",
                    "expectedControlType": "Vector3",
                    "processors": "",
                    "interactions": ""
                },
                {
                    "name": "TrackedDeviceOrientation",
                    "type": "PassThrough",
                    "id": "38f4b1fa-8561-45cf-abbe-57f2150bd118",
                    "expectedControlType": "Quaternion",
                    "processors": "",
                    "interactions": ""
                }
            ],
            "bindings": [
                {
                    "name": "Gamepad",
                    "id": "809f371f-c5e2-4e7a-83a1-d867598f40dd",
                    "path": "2DVector",
                    "interactions": "",
                    "processors": "",
                    "groups": "",
                    "action": "Navigate",
                    "isComposite": true,
                    "isPartOfComposite": false
                },
                {
                    "name": "up",
                    "id": "14a5d6e8-4aaf-4119-a9ef-34b8c2c548bf",
                    "path": "<Gamepad>/leftStick/up",
                    "interactions": "",
                    "processors": "",
                    "groups": ";Gamepad",
                    "action": "Navigate",
                    "isComposite": false,
                    "isPartOfComposite": true
                },
                {
                    "name": "up",
                    "id": "9144cbe6-05e1-4687-a6d7-24f99d23dd81",
                    "path": "<Gamepad>/rightStick/up",
                    "interactions": "",
                    "processors": "",
                    "groups": ";Gamepad",
                    "action": "Navigate",
                    "isComposite": false,
                    "isPartOfComposite": true
                },
                {
                    "name": "down",
                    "id": "2db08d65-c5fb-421b-983f-c71163608d67",
                    "path": "<Gamepad>/leftStick/down",
                    "interactions": "",
                    "processors": "",
                    "groups": ";Gamepad",
                    "action": "Navigate",
                    "isComposite": false,
                    "isPartOfComposite": true
                },
                {
                    "name": "down",
                    "id": "58748904-2ea9-4a80-8579-b500e6a76df8",
                    "path": "<Gamepad>/rightStick/down",
                    "interactions": "",
                    "processors": "",
                    "groups": ";Gamepad",
                    "action": "Navigate",
                    "isComposite": false,
                    "isPartOfComposite": true
                },
                {
                    "name": "left",
                    "id": "8ba04515-75aa-45de-966d-393d9bbd1c14",
                    "path": "<Gamepad>/leftStick/left",
                    "interactions": "",
                    "processors": "",
                    "groups": ";Gamepad",
                    "action": "Navigate",
                    "isComposite": false,
                    "isPartOfComposite": true
                },
                {
                    "name": "left",
                    "id": "712e721c-bdfb-4b23-a86c-a0d9fcfea921",
                    "path": "<Gamepad>/rightStick/left",
                    "interactions": "",
                    "processors": "",
                    "groups": ";Gamepad",
                    "action": "Navigate",
                    "isComposite": false,
                    "isPartOfComposite": true
                },
                {
                    "name": "right",
                    "id": "fcd248ae-a788-4676-a12e-f4d81205600b",
                    "path": "<Gamepad>/leftStick/right",
                    "interactions": "",
                    "processors": "",
                    "groups": ";Gamepad",
                    "action": "Navigate",
                    "isComposite": false,
                    "isPartOfComposite": true
                },
                {
                    "name": "right",
                    "id": "1f04d9bc-c50b-41a1-bfcc-afb75475ec20",
                    "path": "<Gamepad>/rightStick/right",
                    "interactions": "",
                    "processors": "",
                    "groups": ";Gamepad",
                    "action": "Navigate",
                    "isComposite": false,
                    "isPartOfComposite": true
                },
                {
                    "name": "",
                    "id": "fb8277d4-c5cd-4663-9dc7-ee3f0b506d90",
                    "path": "<Gamepad>/dpad",
                    "interactions": "",
                    "processors": "",
                    "groups": ";Gamepad",
                    "action": "Navigate",
                    "isComposite": false,
                    "isPartOfComposite": false
                },
                {
                    "name": "Joystick",
                    "id": "e25d9774-381c-4a61-b47c-7b6b299ad9f9",
                    "path": "2DVector",
                    "interactions": "",
                    "processors": "",
                    "groups": "",
                    "action": "Navigate",
                    "isComposite": true,
                    "isPartOfComposite": false
                },
                {
                    "name": "up",
                    "id": "3db53b26-6601-41be-9887-63ac74e79d19",
                    "path": "<Joystick>/stick/up",
                    "interactions": "",
                    "processors": "",
                    "groups": "Joystick",
                    "action": "Navigate",
                    "isComposite": false,
                    "isPartOfComposite": true
                },
                {
                    "name": "down",
                    "id": "0cb3e13e-3d90-4178-8ae6-d9c5501d653f",
                    "path": "<Joystick>/stick/down",
                    "interactions": "",
                    "processors": "",
                    "groups": "Joystick",
                    "action": "Navigate",
                    "isComposite": false,
                    "isPartOfComposite": true
                },
                {
                    "name": "left",
                    "id": "0392d399-f6dd-4c82-8062-c1e9c0d34835",
                    "path": "<Joystick>/stick/left",
                    "interactions": "",
                    "processors": "",
                    "groups": "Joystick",
                    "action": "Navigate",
                    "isComposite": false,
                    "isPartOfComposite": true
                },
                {
                    "name": "right",
                    "id": "942a66d9-d42f-43d6-8d70-ecb4ba5363bc",
                    "path": "<Joystick>/stick/right",
                    "interactions": "",
                    "processors": "",
                    "groups": "Joystick",
                    "action": "Navigate",
                    "isComposite": false,
                    "isPartOfComposite": true
                },
                {
                    "name": "Keyboard",
                    "id": "ff527021-f211-4c02-933e-5976594c46ed",
                    "path": "2DVector",
                    "interactions": "",
                    "processors": "",
                    "groups": "",
                    "action": "Navigate",
                    "isComposite": true,
                    "isPartOfComposite": false
                },
                {
                    "name": "up",
                    "id": "563fbfdd-0f09-408d-aa75-8642c4f08ef0",
                    "path": "<Keyboard>/w",
                    "interactions": "",
                    "processors": "",
                    "groups": "Keyboard&Mouse",
                    "action": "Navigate",
                    "isComposite": false,
                    "isPartOfComposite": true
                },
                {
                    "name": "up",
                    "id": "eb480147-c587-4a33-85ed-eb0ab9942c43",
                    "path": "<Keyboard>/upArrow",
                    "interactions": "",
                    "processors": "",
                    "groups": "Keyboard&Mouse",
                    "action": "Navigate",
                    "isComposite": false,
                    "isPartOfComposite": true
                },
                {
                    "name": "down",
                    "id": "2bf42165-60bc-42ca-8072-8c13ab40239b",
                    "path": "<Keyboard>/s",
                    "interactions": "",
                    "processors": "",
                    "groups": "Keyboard&Mouse",
                    "action": "Navigate",
                    "isComposite": false,
                    "isPartOfComposite": true
                },
                {
                    "name": "down",
                    "id": "85d264ad-e0a0-4565-b7ff-1a37edde51ac",
                    "path": "<Keyboard>/downArrow",
                    "interactions": "",
                    "processors": "",
                    "groups": "Keyboard&Mouse",
                    "action": "Navigate",
                    "isComposite": false,
                    "isPartOfComposite": true
                },
                {
                    "name": "left",
                    "id": "74214943-c580-44e4-98eb-ad7eebe17902",
                    "path": "<Keyboard>/a",
                    "interactions": "",
                    "processors": "",
                    "groups": "Keyboard&Mouse",
                    "action": "Navigate",
                    "isComposite": false,
                    "isPartOfComposite": true
                },
                {
                    "name": "left",
                    "id": "cea9b045-a000-445b-95b8-0c171af70a3b",
                    "path": "<Keyboard>/leftArrow",
                    "interactions": "",
                    "processors": "",
                    "groups": "Keyboard&Mouse",
                    "action": "Navigate",
                    "isComposite": false,
                    "isPartOfComposite": true
                },
                {
                    "name": "right",
                    "id": "8607c725-d935-4808-84b1-8354e29bab63",
                    "path": "<Keyboard>/d",
                    "interactions": "",
                    "processors": "",
                    "groups": "Keyboard&Mouse",
                    "action": "Navigate",
                    "isComposite": false,
                    "isPartOfComposite": true
                },
                {
                    "name": "right",
                    "id": "4cda81dc-9edd-4e03-9d7c-a71a14345d0b",
                    "path": "<Keyboard>/rightArrow",
                    "interactions": "",
                    "processors": "",
                    "groups": "Keyboard&Mouse",
                    "action": "Navigate",
                    "isComposite": false,
                    "isPartOfComposite": true
                },
                {
                    "name": "",
                    "id": "9e92bb26-7e3b-4ec4-b06b-3c8f8e498ddc",
                    "path": "*/{Submit}",
                    "interactions": "",
                    "processors": "",
                    "groups": "",
                    "action": "Submit",
                    "isComposite": false,
                    "isPartOfComposite": false
                },
                {
                    "name": "",
                    "id": "82627dcc-3b13-4ba9-841d-e4b746d6553e",
                    "path": "*/{Cancel}",
                    "interactions": "",
                    "processors": "",
                    "groups": "",
                    "action": "Cancel",
                    "isComposite": false,
                    "isPartOfComposite": false
                },
                {
                    "name": "",
                    "id": "c52c8e0b-8179-41d3-b8a1-d149033bbe86",
                    "path": "<Mouse>/position",
                    "interactions": "",
                    "processors": "",
                    "groups": "Keyboard&Mouse",
                    "action": "Point",
                    "isComposite": false,
                    "isPartOfComposite": false
                },
                {
                    "name": "",
                    "id": "e1394cbc-336e-44ce-9ea8-6007ed6193f7",
                    "path": "<Pen>/position",
                    "interactions": "",
                    "processors": "",
                    "groups": "Keyboard&Mouse",
                    "action": "Point",
                    "isComposite": false,
                    "isPartOfComposite": false
                },
                {
                    "name": "",
                    "id": "5693e57a-238a-46ed-b5ae-e64e6e574302",
                    "path": "<Touchscreen>/touch*/position",
                    "interactions": "",
                    "processors": "",
                    "groups": "Touch",
                    "action": "Point",
                    "isComposite": false,
                    "isPartOfComposite": false
                },
                {
                    "name": "",
                    "id": "4faf7dc9-b979-4210-aa8c-e808e1ef89f5",
                    "path": "<Mouse>/leftButton",
                    "interactions": "",
                    "processors": "",
                    "groups": ";Keyboard&Mouse",
                    "action": "Click",
                    "isComposite": false,
                    "isPartOfComposite": false
                },
                {
                    "name": "",
                    "id": "8d66d5ba-88d7-48e6-b1cd-198bbfef7ace",
                    "path": "<Pen>/tip",
                    "interactions": "",
                    "processors": "",
                    "groups": ";Keyboard&Mouse",
                    "action": "Click",
                    "isComposite": false,
                    "isPartOfComposite": false
                },
                {
                    "name": "",
                    "id": "47c2a644-3ebc-4dae-a106-589b7ca75b59",
                    "path": "<Touchscreen>/touch*/press",
                    "interactions": "",
                    "processors": "",
                    "groups": "Touch",
                    "action": "Click",
                    "isComposite": false,
                    "isPartOfComposite": false
                },
                {
                    "name": "",
                    "id": "bb9e6b34-44bf-4381-ac63-5aa15d19f677",
                    "path": "<XRController>/trigger",
                    "interactions": "",
                    "processors": "",
                    "groups": "XR",
                    "action": "Click",
                    "isComposite": false,
                    "isPartOfComposite": false
                },
                {
                    "name": "",
                    "id": "38c99815-14ea-4617-8627-164d27641299",
                    "path": "<Mouse>/scroll",
                    "interactions": "",
                    "processors": "",
                    "groups": ";Keyboard&Mouse",
                    "action": "ScrollWheel",
                    "isComposite": false,
                    "isPartOfComposite": false
                },
                {
                    "name": "",
                    "id": "24066f69-da47-44f3-a07e-0015fb02eb2e",
                    "path": "<Mouse>/middleButton",
                    "interactions": "",
                    "processors": "",
                    "groups": ";Keyboard&Mouse",
                    "action": "MiddleClick",
                    "isComposite": false,
                    "isPartOfComposite": false
                },
                {
                    "name": "",
                    "id": "4c191405-5738-4d4b-a523-c6a301dbf754",
                    "path": "<Mouse>/rightButton",
                    "interactions": "",
                    "processors": "",
                    "groups": ";Keyboard&Mouse",
                    "action": "RightClick",
                    "isComposite": false,
                    "isPartOfComposite": false
                },
                {
                    "name": "",
                    "id": "7236c0d9-6ca3-47cf-a6ee-a97f5b59ea77",
                    "path": "<XRController>/devicePosition",
                    "interactions": "",
                    "processors": "",
                    "groups": "XR",
                    "action": "TrackedDevicePosition",
                    "isComposite": false,
                    "isPartOfComposite": false
                },
                {
                    "name": "",
                    "id": "23e01e3a-f935-4948-8d8b-9bcac77714fb",
                    "path": "<XRController>/deviceRotation",
                    "interactions": "",
                    "processors": "",
                    "groups": "XR",
                    "action": "TrackedDeviceOrientation",
                    "isComposite": false,
                    "isPartOfComposite": false
                }
            ]
        }
    ],
    "controlSchemes": [
        {
            "name": "Keyboard&Mouse",
            "bindingGroup": "Keyboard&Mouse",
            "devices": [
                {
                    "devicePath": "<Keyboard>",
                    "isOptional": false,
                    "isOR": false
                },
                {
                    "devicePath": "<Mouse>",
                    "isOptional": false,
                    "isOR": false
                }
            ]
        },
        {
            "name": "Gamepad",
            "bindingGroup": "Gamepad",
            "devices": [
                {
                    "devicePath": "<Gamepad>",
                    "isOptional": false,
                    "isOR": false
                }
            ]
        },
        {
            "name": "Touch",
            "bindingGroup": "Touch",
            "devices": [
                {
                    "devicePath": "<Touchscreen>",
                    "isOptional": false,
                    "isOR": false
                }
            ]
        },
        {
            "name": "Joystick",
            "bindingGroup": "Joystick",
            "devices": [
                {
                    "devicePath": "<Joystick>",
                    "isOptional": false,
                    "isOR": false
                }
            ]
        },
        {
            "name": "XR",
            "bindingGroup": "XR",
            "devices": [
                {
                    "devicePath": "<XRController>",
                    "isOptional": false,
                    "isOR": false
                }
            ]
        }
    ]
}